Project 1: Exploratory Data Analysis
…
1. Tidying

alcrates <- Consumption_Alcohol %>% rename(State.Year = "State or other\ngeographic area", 
    U.S._decile = "U.S. decile for all beverages\n", All = "All beverages")
alcrates <- alcrates %>% select(-U.S._decile) %>% pivot_wider(names_from = "State.Year", 
    values_from = c("Beer", "Wine", "Spirits", "All"))
alcrates <- alcrates %>% pivot_longer(contains("_")) %>% separate(name, 
    into = c("Alcohol", "state"), sep = "_") %>% separate(state, 
    into = c("State", "Year"))
alcrates <- alcrates %>% pivot_wider(names_from = "Alcohol", 
    values_from = "value")
alcrates

## # A tibble: 1,683 x 6
##    State   Year   Beer  Wine Spirits   All
##    <chr>   <chr> <dbl> <dbl>   <dbl> <dbl>
##  1 Alabama 2009   1.2   0.22   0.580  2.01
##  2 Alabama 2008   1.24  0.22   0.580  2.04
##  3 Alabama 2007   1.24  0.22   0.56   2.02
##  4 Alabama 2006   1.22  0.21   0.55   1.97
##  5 Alabama 2005   1.18  0.2    0.53   1.91
##  6 Alabama 2004   1.19  0.2    0.52   1.9 
##  7 Alabama 2003   1.18  0.19   0.52   1.89
##  8 Alabama 2002   1.18  0.21   0.53   1.92
##  9 Alabama 2001   1.16  0.17   0.53   1.86
## 10 Alabama 2000   1.19  0.18   0.51   1.88
## # … with 1,673 more rows
…
key <- read_csv("https://raw.githubusercontent.com/jasonong/List-of-US-States/master/states.csv")
newkey <- key %>% mutate(new.state = str_replace(State, " ", 
    ""))
newkey2 <- newkey %>% mutate(new.state2 = str_replace(new.state, 
    " ", ""))
newkey2 <- newkey2 %>% select(-State, -new.state)
newrates <- full_join(newkey2, alcrates, by = c(new.state2 = "State"))
fulldata <- full_join(newrates, USSeatBelts, by = c(Abbreviation = "state", 
    Year = "year"))
fulldata2 <- fulldata %>% na.omit() %>% select(c(-new.state2, 
    -speed65, -speed70))
fulldata2

## # A tibble: 556 x 14
##    Abbreviation Year   Beer  Wine Spirits   All miles fatalities seatbelt
##    <chr>        <chr> <dbl> <dbl>   <dbl> <dbl> <dbl>      <dbl>    <dbl>
##  1 AL           1997   1.14  0.15    0.52  1.81 53458     0.0223    0.520
##  2 AL           1996   1.17  0.15    0.53  1.86 51433     0.0223    0.540
##  3 AL           1995   1.14  0.15    0.53  1.81 50628     0.0220    0.520
##  4 AL           1994   1.16  0.17    0.54  1.87 48956     0.0221    0.550
##  5 AL           1993   1.14  0.17    0.56  1.86 47337     0.0221    0.550
##  6 AL           1992   1.02  0.19    0.59  1.79 45762     0.0225    0.580
##  7 AL           1991   1     0.17    0.59  1.76 42924     0.0260    0.470
##  8 AL           1990   1.12  0.18    0.61  1.92 42347     0.0265    0.440
##  9 AL           1989   1.1   0.17    0.6   1.87 40765     0.0252    0.380
## 10 AL           1988   1.1   0.18    0.61  1.89 39684     0.0258    0.290
## # … with 546 more rows, and 5 more variables: drinkage <fct>, alcohol <fct>,
## #   income <dbl>, age <dbl>, enforce <fct>
…
fulldata3 %>% group_by(State) %>% summarize(mean = mean(All), 
    sd = sd(All), count = n(), se = sd/sqrt(count), variation = var(All), 
    median = median(All))

## # A tibble: 51 x 7
##    State  mean     sd count     se variation median
##    <chr> <dbl>  <dbl> <int>  <dbl>     <dbl>  <dbl>
##  1 AK     2.89 0.286      8 0.101    0.0816    2.94
##  2 AL     1.86 0.0483    14 0.0129   0.00233   1.87
##  3 AR     1.75 0.0871    10 0.0275   0.00758   1.74
##  4 AZ     2.59 0.126      8 0.0445   0.0158    2.6 
##  5 CA     2.62 0.351     13 0.0974   0.123     2.54
##  6 CO     2.53 0.0794     8 0.0281   0.00631   2.54
##  7 CT     2.25 0.103      8 0.0365   0.0107    2.21
##  8 DC     3.84 0.173      8 0.0611   0.0298    3.77
##  9 DE     2.76 0.0949     8 0.0335   0.00900   2.76
## 10 FL     2.77 0.195     13 0.0540   0.0378    2.75
## # … with 41 more rows

fulldata3 %>% group_by(State, Year) %>% summarize(mean_rank = mean(All, 
    na.rm = T)) %>% arrange(desc(mean_rank))

## # A tibble: 556 x 3
## # Groups:   State [51]
##    State Year  mean_rank
##    <chr> <chr>     <dbl>
##  1 NV    1986       5.05
##  2 NV    1987       4.99
##  3 NV    1988       4.91
##  4 NV    1990       4.78
##  5 NH    1986       4.51
##  6 NH    1987       4.41
##  7 NH    1993       4.38
##  8 NH    1989       4.37
##  9 NH    1988       4.33
## 10 NV    1991       4.31
## # … with 546 more rows
…
